{
  "repo": {
    "timestamp": 1493072512036,
    "version": 18,
    "name": "Test Repo",
    "icon": "default-repo-icon.png",
    "address": "https://grobox.de/testrepo/fdroid/repo",
    "description": "desgrfsgf",
    "mirrors": [
      "https://gitlab.com/grote-test/test/raw/master/fdroid/repo/repo"
    ]
  },
  "requests": {
    "install": [],
    "uninstall": []
  },
  "apps": [],
  "packages": {}
}